Cleaning
…
1.2.1 Analysing the NA values

#Observing data with NA values
animals_slaughtered_for_meat[rowSums(is.na(animals_slaughtered_for_meat)) > 0, ]

## # A tibble: 10,676 x 9
##    Entity      Code   Year Cattle   Goats  Chicken Turkey  Pigs   Sheep
##    <chr>       <chr> <dbl>  <dbl>   <dbl>    <dbl>  <dbl> <dbl>   <dbl>
##  1 Afghanistan AFG    1961 360000  940000  7000000     NA    NA 4336000
##  2 Afghanistan AFG    1962 384000  875000  7500000     NA    NA 4355000
##  3 Afghanistan AFG    1963 396000  810000  7700000     NA    NA 4673000
##  4 Afghanistan AFG    1964 402000  750000  8000000     NA    NA 5010000
##  5 Afghanistan AFG    1965 408000  875000  8500000     NA    NA 5179000
##  6 Afghanistan AFG    1966 569600 1130000  9000000     NA    NA 5366000
##  7 Afghanistan AFG    1967 544000 1562500  9500000     NA    NA 5700000
##  8 Afghanistan AFG    1968 595300 1562500 10000000     NA    NA 6500000
##  9 Afghanistan AFG    1969 628300 1562500 12000000     NA    NA 6120000
## 10 Afghanistan AFG    1970 653000 1400000 12000000     NA    NA 6300000
## # … with 10,666 more rows

Observing the NA values with NA values in the code column

#Observing data with NA values in the code column
animals_slaughtered_for_meat[is.na(animals_slaughtered_for_meat$Code), ]

## # A tibble: 1,919 x 9
##    Entity Code   Year   Cattle    Goats   Chicken  Turkey    Pigs    Sheep
##    <chr>  <chr> <dbl>    <dbl>    <dbl>     <dbl>   <dbl>   <dbl>    <dbl>
##  1 Africa <NA>   1961 13234469 28149963 358405000 1425000 3835586 37209769
##  2 Africa <NA>   1962 13352172 28839824 372999000 1510000 3987514 37692188
##  3 Africa <NA>   1963 13446035 28479713 386697000 1585000 4070344 37941638
##  4 Africa <NA>   1964 13876142 29039973 409381000 1670000 4313906 39516510
##  5 Africa <NA>   1965 14132494 30173704 428228000 1756000 4536320 40664599
##  6 Africa <NA>   1966 14825209 30913404 453648000 1896000 4723078 42342568
##  7 Africa <NA>   1967 14970980 31614464 481029000 1917000 4803676 43350909
##  8 Africa <NA>   1968 15529364 32523803 508385000 2072000 5183896 44701160
##  9 Africa <NA>   1969 15883805 33160629 546194000 2233000 5552211 46860808
## 10 Africa <NA>   1970 16278810 34092259 578997000 2383000 5612991 45567490
## # … with 1,909 more rows

Cleaning the rows without code.

#Because the code does not have codes for the continents, it is necessary to erase those rows.
#Delete columns without code (Only rows that are continents)
animals_slaughtered_for_meat[!is.na(animals_slaughtered_for_meat$Code), ]

## # A tibble: 11,618 x 9
##    Entity      Code   Year Cattle   Goats  Chicken Turkey  Pigs   Sheep
##    <chr>       <chr> <dbl>  <dbl>   <dbl>    <dbl>  <dbl> <dbl>   <dbl>
##  1 Afghanistan AFG    1961 360000  940000  7000000     NA    NA 4336000
##  2 Afghanistan AFG    1962 384000  875000  7500000     NA    NA 4355000
##  3 Afghanistan AFG    1963 396000  810000  7700000     NA    NA 4673000
##  4 Afghanistan AFG    1964 402000  750000  8000000     NA    NA 5010000
##  5 Afghanistan AFG    1965 408000  875000  8500000     NA    NA 5179000
##  6 Afghanistan AFG    1966 569600 1130000  9000000     NA    NA 5366000
##  7 Afghanistan AFG    1967 544000 1562500  9500000     NA    NA 5700000
##  8 Afghanistan AFG    1968 595300 1562500 10000000     NA    NA 6500000
##  9 Afghanistan AFG    1969 628300 1562500 12000000     NA    NA 6120000
## 10 Afghanistan AFG    1970 653000 1400000 12000000     NA    NA 6300000
## # … with 11,608 more rows
